{
    "@context": {
        "byld": "urn:byld.org:",
        "dc": "http://purl.org/dc/terms/",
        "cc": "http://creativecommons.org/ns#",
        "exif": "http://www.w3.org/2003/12/exif/ns#",
        "schema": "http://schema.org/"
    }
}
